…
``` r
mean(str_count(string_10, "[^aeiou]")) # the mean value of the number of consonants in words
```

    ## [1] 3.285714

``` r
dataframe %>% 
  mutate(
    vowels = str_count(word, "[aeiou]"),
    consonants = str_count(word, "[^aeiou]")
  )
```

    ## # A tibble: 980 x 4
    ##    word         i vowels consonants
    ##    <chr>    <int>  <int>      <int>
    ##  1 a            1      1          0
    ##  2 able         2      2          2
    ##  3 about        3      3          2
    ##  4 absolute     4      4          4
    ##  5 accept       5      2          4
    ##  6 account      6      3          4
    ##  7 achieve      7      4          3
    ##  8 across       8      2          4
    ##  9 act          9      1          2
    ## 10 active      10      3          3
    ## # ... with 970 more rows
…
``` r
tibble(sentence = sentences) %>% 
  tidyr::extract(
    sentence, c("article", "noun"), "(a|the) ([^ ]+)", 
    remove = FALSE
  )
```

    ## # A tibble: 720 x 3
    ##    sentence                                    article noun   
    ##    <chr>                                       <chr>   <chr>  
    ##  1 The birch canoe slid on the smooth planks.  the     smooth 
    ##  2 Glue the sheet to the dark blue background. the     sheet  
    ##  3 It's easy to tell the depth of a well.      the     depth  
    ##  4 These days a chicken leg is a rare dish.    a       chicken
    ##  5 Rice is often served in round bowls.        <NA>    <NA>   
    ##  6 The juice of lemons makes fine punch.       <NA>    <NA>   
    ##  7 The box was thrown beside the parked truck. the     parked 
    ##  8 The hogs were fed chopped corn and garbage. <NA>    <NA>   
    ##  9 Four hours of steady work faced us.         <NA>    <NA>   
    ## 10 Large size in stockings is hard to sell.    <NA>    <NA>   
    ## # ... with 710 more rows
…
